…
**GSS filter dataframe consist of only the data where people had responsed Yes or No for Harassed question.**

```r
gss_filter <- gss %>%
  filter(harass5 %in% c('Yes','No'))
gss_filter
```

```
## # A tibble: 1,373 x 5
##    harass5  educ born  polviews             advfront
##    <chr>   <dbl> <chr> <chr>                <chr>   
##  1 No         16 Yes   Conservative         <NA>    
##  2 No         18 Yes   Slightly liberal     <NA>    
##  3 No         11 No    Slghtly conservative <NA>    
##  4 No         14 Yes   Conservative         <NA>    
##  5 No         12 Yes   <NA>                 <NA>    
##  6 Yes        13 Yes   Moderate             <NA>    
##  7 No         13 No    Conservative         <NA>    
##  8 No         18 Yes   Liberal              <NA>    
##  9 No         11 Yes   Slghtly conservative <NA>    
## 10 No         10 No    Slightly liberal     <NA>    
## # … with 1,363 more rows
```
…
